Hamilton Christmas Bird Count: Part 2a
…
Part 2a: more cleaning

Part 2b: visualizing

Part 3: a Shiny app

Part 4: a gganimate plot

Introduction

While I was visualizing the data, I realized I still needed to do a bit more cleaning. So this is a short post outlining my steps to do so.

To start, we’ll load all of the packages and the data:

# A tibble: 20,868 × 6
    year species        species_latin     how_many_counted total_hours
   <int> <chr>          <chr>                        <int>       <dbl>
 1  1921 "Snow Goose\r" Chen caerulescens                0           8
 2  1922 "Snow Goose\r" Chen caerulescens                0          NA
 3  1924 "Snow Goose\r" Chen caerulescens                0          NA
 4  1925 "Snow Goose\r" Chen caerulescens                0          NA
 5  1926 "Snow Goose\r" Chen caerulescens                0          NA
 6  1928 "Snow Goose\r" Chen caerulescens                0          NA
 7  1930 "Snow Goose\r" Chen caerulescens                0          NA
 8  1931 "Snow Goose\r" Chen caerulescens                0          NA
 9  1932 "Snow Goose\r" Chen caerulescens                0          NA
10  1933 "Snow Goose\r" Chen caerulescens                0          NA
# ℹ 20,858 more rows
# ℹ 1 more variable: how_many_counted_by_hour <dbl>
…
The first step is to only keep the first two words of the species_latin variable:

hamilton_cbc <- hamilton_cbc %>%
  mutate(species_latin = word(species_latin, start = 1, end = 2))

We can also see who else is in this list:

hamilton_cbc %>%
  group_by(species_latin) %>%
  filter(n_distinct(species) > 1) %>%
  group_by(species, species_latin) %>%
  summarise(total_counted = sum(how_many_counted)) %>%
  ungroup()

# A tibble: 26 × 3
   species                         species_latin      total_counted
   <chr>                           <chr>                      <int>
 1 American Kestrel                Falco sparverius            1520
 2 American Kestrel (Northern)     Falco sparverius               4
 3 Brant                           Branta bernicla                8
 4 Brant (Atlantic)                Branta bernicla                1
 5 Common Grackle                  Quiscalus quiscula           173
 6 Common Grackle (Purple)         Quiscalus quiscula            17
 7 Dark-eyed Junco                 Junco hyemalis             14426
 8 Dark-eyed Junco (Oregon)        Junco hyemalis                39
 9 Dark-eyed Junco (Slate-colored) Junco hyemalis             46764
10 Dark-eyed Junco (White-winged)  Junco hyemalis                 1
# ℹ 16 more rows
…
