Hamilton Christmas Bird Count: Part 1
…
It turns out that how_many_counted also has a cw value, which means the bird was not seen on count day itself, but was seen on a day close to the count. I am going to set these bird counts to be NA, as they don’t have a specified value.

hamilton_cbc <- hamilton_cbc %>%
  mutate(how_many_counted = ifelse(how_many_counted == "cw", NA, how_many_counted),
         how_many_counted = as.integer(how_many_counted))

In the species variable, there are some rows that are identified only to the genus level (and not to the species level). I will exclude these records, as I believe eBird excludes them too.

hamilton_cbc %>%
filter(str_detect(species, "sp\\.")) %>%
distinct(species)

# A tibble: 25 × 1
   species            
   <chr>              
 1 "scoter sp.\r"     
 2 "duck sp.\r"       
 3 "loon sp.\r"       
 4 "Accipiter sp.\r"  
 5 "hawk sp.\r"       
 6 "eagle sp.\r"      
 7 "jaeger sp.\r"     
 8 "gull sp.\r"       
 9 "screech-owl sp.\r"
10 "owl sp.\r"        
# ℹ 15 more rows
…
